#
# A fatal error has been detected by the Java Runtime Environment:
#
#  Internal Error (javaClasses.cpp:136), pid=5368, tid=592
#  fatal error: Invalid layout of preloaded class
#
# JRE version:  (7.0_51-b13) (build )
# Java VM: Java HotSpot(TM) 64-Bit Server VM (24.51-b03 mixed mode windows-amd64 compressed oops)
# Failed to write core dump. Minidumps are not enabled by default on client versions of Windows
#
# If you would like to submit a bug report, please visit:
#   http://bugreport.sun.com/bugreport/crash.jsp
#

---------------  T H R E A D  ---------------

Current thread (0x000000000223e000):  JavaThread "Unknown thread" [_thread_in_vm, id=592, stack(0x00000000023c0000,0x00000000024c0000)]

Stack: [0x00000000023c0000,0x00000000024c0000]

---------------  P R O C E S S  ---------------

Java Threads: ( => current thread )

Other Threads:

=>0x000000000223e000 (exited) JavaThread "Unknown thread" [_thread_in_vm, id=592, stack(0x00000000023c0000,0x00000000024c0000)]

VM state:not at safepoint (not fully initialized)

VM Mutex/Monitor currently owned by a thread: None

GC Heap History (0 events):
No events

Deoptimization events (0 events):
No events

Internal exceptions (0 events):
No events

Events (10 events):
Event: 0.009 loading class 0x00000000020ed0d0 done
Event: 0.009 loading class 0x00000000020ecaf0 done
Event: 0.009 loading class 0x00000000020ecad0
Event: 0.009 loading class 0x00000000020f4bd0
Event: 0.009 loading class 0x00000000020f4bd0 done
Event: 0.009 loading class 0x00000000020f4c00
Event: 0.009 loading class 0x00000000020f4c00 done
Event: 0.009 loading class 0x00000000020f4c30
Event: 0.009 loading class 0x00000000020f4c30 done
Event: 0.009 loading class 0x00000000020ecad0 done


Dynamic libraries:
0x000000013f480000 - 0x000000013f4b3000 	C:\Program Files\Java\jre7\bin\javaw.exe
0x0000000076f30000 - 0x00000000770d9000 	C:\Windows\SYSTEM32\ntdll.dll
0x0000000076d10000 - 0x0000000076e2f000 	C:\Windows\system32\kernel32.dll
0x000007fefbc30000 - 0x000007fefbc9c000 	C:\Windows\system32\KERNELBASE.dll
0x000007fefc1b0000 - 0x000007fefc28b000 	C:\Windows\system32\ADVAPI32.dll
0x000007fefc950000 - 0x000007fefc9ef000 	C:\Windows\system32\msvcrt.dll
0x000007fefdfa0000 - 0x000007fefdfbf000 	C:\Windows\SYSTEM32\sechost.dll
0x000007fefc2b0000 - 0x000007fefc3dd000 	C:\Windows\system32\RPCRT4.dll
0x0000000076e30000 - 0x0000000076f2a000 	C:\Windows\system32\USER32.dll
0x000007fefc800000 - 0x000007fefc867000 	C:\Windows\system32\GDI32.dll
0x000007fefc1a0000 - 0x000007fefc1ae000 	C:\Windows\system32\LPK.dll
0x000007fefcb00000 - 0x000007fefcbc9000 	C:\Windows\system32\USP10.dll
0x000007fefb450000 - 0x000007fefb644000 	C:\Windows\WinSxS\amd64_microsoft.windows.common-controls_6595b64144ccf1df_6.0.7601.18837_none_fa3b1e3d17594757\COMCTL32.dll
0x000007fefc520000 - 0x000007fefc591000 	C:\Windows\system32\SHLWAPI.dll
0x000007fefc640000 - 0x000007fefc66e000 	C:\Windows\system32\IMM32.DLL
0x000007fefc9f0000 - 0x000007fefcaf9000 	C:\Windows\system32\MSCTF.dll
0x000007feee300000 - 0x000007feee38d000 	C:\Program Files (x86)\AVG\AVG2015\avghooka.dll
0x0000000079030000 - 0x0000000079102000 	C:\Program Files\Java\jre7\bin\msvcr100.dll
0x0000000058750000 - 0x0000000058f19000 	C:\Program Files\Java\jre7\bin\server\jvm.dll
0x000007fef71c0000 - 0x000007fef71c9000 	C:\Windows\system32\WSOCK32.dll
0x000007fefc450000 - 0x000007fefc49d000 	C:\Windows\system32\WS2_32.dll
0x000007fefc3e0000 - 0x000007fefc3e8000 	C:\Windows\system32\NSI.dll
0x000007fef9370000 - 0x000007fef93ab000 	C:\Windows\system32\WINMM.dll
0x00000000770f0000 - 0x00000000770f7000 	C:\Windows\system32\PSAPI.DLL
0x0000000063170000 - 0x000000006317f000 	C:\Program Files\Java\jre7\bin\verify.dll
0x0000000063140000 - 0x0000000063168000 	C:\Program Files\Java\jre7\bin\java.dll
0x0000000063120000 - 0x0000000063135000 	C:\Program Files\Java\jre7\bin\zip.dll

VM Arguments:
jvm_args: -Dfile.encoding=Cp1252 -Xbootclasspath:C:\Users\Isaac\Desktop\adt-bundle-windows-x86_64-20140702\sdk\platforms\android-19\android.jar 
java_command: org.eclipse.jdt.internal.junit.runner.RemoteTestRunner -version 3 -port 57636 -testLoaderClass org.eclipse.jdt.internal.junit.runner.junit3.JUnit3TestLoader -loaderpluginname org.eclipse.jdt.junit.runtime -classNames com.mande.tests.MyFirstTestActivityTest
Launcher Type: SUN_STANDARD

Environment Variables:
JAVA_HOME=C:\Program Files\Java\jdk1.7.0_51
PATH=C:\Windows\system32;C:\Windows;C:\Windows\System32\Wbem;C:\Windows\System32\WindowsPowerShell\v1.0\;C:\Program Files (x86)\Skype\Phone\;C:\Program Files\Java\jdk1.7.0_51\bin;C:\Program Files\Apache Software Foundation\Tomcat 8.0\lib;C:\Users\Isaac\AppData\Local\Android\sdk\tools;C:\Users\Isaac\AppData\Local\Android\sdk\platform-tools;C:\Program Files\Apache Software Foundation\Tomcat 8.0\webapps\kwefaako\WEB-INF\lib;
USERNAME=Isaac
OS=Windows_NT
PROCESSOR_IDENTIFIER=Intel64 Family 6 Model 58 Stepping 9, GenuineIntel



---------------  S Y S T E M  ---------------

OS: Windows 7 , 64 bit Build 7601 Service Pack 1

CPU:total 4 (2 cores per cpu, 2 threads per core) family 6 model 58 stepping 9, cmov, cx8, fxsr, mmx, sse, sse2, sse3, ssse3, sse4.1, sse4.2, popcnt, avx, aes, erms, ht, tsc, tscinvbit, tscinv

Memory: 4k page, physical 16647896k(7175924k free), swap 33293956k(22324236k free)

vm_info: Java HotSpot(TM) 64-Bit Server VM (24.51-b03) for windows-amd64 JRE (1.7.0_51-b13), built on Dec 18 2013 18:40:56 by "java_re" with unknown MS VC++:1600

time: Fri Jul 31 14:33:55 2015
elapsed time: 0 seconds

